Fraud
…
fraudulentTimes <- fraud %>% group_by(OrderHour, Fraudulent) %>% summarise(count = n()) %>% mutate(perc= round(count/sum(count), digits = 3))
fraudulentTimes

## # A tibble: 48 x 4
## # Groups:   OrderHour [24]
##    OrderHour Fraudulent count  perc
##        <int>      <int> <int> <dbl>
##  1         0          0  2312 0.908
##  2         0          1   235 0.092
##  3         1          0  1516 0.868
##  4         1          1   230 0.132
##  5         2          0   891 0.836
##  6         2          1   175 0.164
##  7         3          0   544 0.821
##  8         3          1   119 0.179
##  9         4          0   343 0.769
## 10         4          1   103 0.231
## # ... with 38 more rows
…
H <- inner_join(FF, E)

## Joining, by = c("State", "Country")

I <- left_join(H, G)

## Joining, by = "State"

PercentFraud <- I %>% mutate(pctFrOrders = round(FraudulentOrders/TotalOrders, digits = 2), pctRevLost = round(TotalFraudulentRevenue/TotalRev, digits = 2), AvAmtFraudOrder = round(TotalFraudulentRevenue/FraudulentOrders, digits = 2)) %>% arrange(desc(TotalFraudulentRevenue))
PercentFraud

## # A tibble: 72 x 9
## # Groups:   State [72]
##               State Country FraudulentOrders TotalOrders TotalRev
##               <chr>   <chr>            <int>       <int>    <dbl>
##  1       California     USA              634       10311  9375775
##  2          Florida     USA              386        6719  6274549
##  3         New York     USA             1411        8408  6384112
##  4            Texas     USA              262        5308  5128901
##  5          Ontario  Canada              120        4151  4267023
##  6         Illinois     USA              133        2671  2357301
##  7 British Columbia  Canada               76        1649  1885269
##  8     Pennsylvania     USA              121        2360  2245419
##  9          Georgia     USA              109        2261  2006822
## 10          Alberta  Canada               48        1411  1565668
## # ... with 62 more rows, and 4 more variables:
## #   TotalFraudulentRevenue <dbl>, pctFrOrders <dbl>, pctRevLost <dbl>,
## #   AvAmtFraudOrder <dbl>
…
